…
**Calculate the total number of steps taken per day **

``` r
library(dplyr, verbose = F, warn.conflicts = FALSE)
```

    ## Warning: package 'dplyr' was built under R version 3.3.3

``` r
activity_by_day <- group_by(activity, date)
average_daily_activity <- summarize(activity_by_day, steps=sum(steps,na.rm=TRUE))
print(average_daily_activity)
```

    ## # A tibble: 61 × 2
    ##          date steps
    ##        <date> <int>
    ## 1  2012-10-01     0
    ## 2  2012-10-02   126
    ## 3  2012-10-03 11352
    ## 4  2012-10-04 12116
    ## 5  2012-10-05 13294
    ## 6  2012-10-06 15420
    ## 7  2012-10-07 11015
    ## 8  2012-10-08     0
    ## 9  2012-10-09 12811
    ## 10 2012-10-10  9900
    ## # ... with 51 more rows
…
activity_filled <- activity
activity_filled$steps <- mapply(replace_by_mean, activity$interval, activity$steps)
```

**Make a histogram of the total number of steps taken each day and Calculate and report the mean and median total number of steps taken per day. Do these values differ from the estimates from the first part of the assignment? What is the impact of imputing missing data on the estimates of the total daily number of steps?**

``` r
activity_by_day_filled <- group_by(activity_filled, date)
average_daily_activity_filled <- summarize(activity_by_day_filled, steps=sum(steps,na.rm=TRUE))
print(average_daily_activity_filled)
```

    ## # A tibble: 61 × 2
    ##          date    steps
    ##        <date>    <dbl>
    ## 1  2012-10-01 10766.19
    ## 2  2012-10-02   126.00
    ## 3  2012-10-03 11352.00
    ## 4  2012-10-04 12116.00
    ## 5  2012-10-05 13294.00
    ## 6  2012-10-06 15420.00
    ## 7  2012-10-07 11015.00
    ## 8  2012-10-08 10766.19
    ## 9  2012-10-09 12811.00
    ## 10 2012-10-10  9900.00
    ## # ... with 51 more rows
…
